{"current_page":1,"data":[{"id":1,"NomeFantasia":"Stamm, Kihn and Auer","RazaoSocial":"Weber-Grimes and Sons","Foto":"establishments\/223621201907245d38dd65a8ac6.jpeg","CNPJ":"01370332","DI":"0001","DV":"36","Atendimento":"Segunda a Sexta, das 8:00 \u00e0s 17:00.","Tipo":"M","Especialidade":"Clinica Geral","Estado":"Montana","Cidade":"Williamsonside","Bairro":"quaerat","Logradouro":"Rolfson Terrace","Numero":2134,"Complemento":null,"cep":null,"Email":"xcummings@bartoletti.com","NomeResponsavel":"Olen Johnston","Cargo":"Coaches and Scout","Telefone":"+1-847-379-0911","Celular":"+4971773425795","EMatriz":"1","TemFilial":"0","Site":"medhurst.coby@jaskolski.com","RedeSocial":null,"created_at":"2019-07-16 13:02:51","updated_at":"2019-07-24 22:36:21"},{"id":2,"NomeFantasia":"Predovic LLC","RazaoSocial":"Berge, O'Hara and Olson and Sons","Foto":"https:\/\/lorempixel.com\/640\/480\/?73001","CNPJ":"85434702","DI":"0001","DV":"95","Atendimento":"Segunda a Sexta, das 8:00 \u00e0s 17:00.","Tipo":"A","Especialidade":"Clinica Geral","Estado":"Rhode Island","Cidade":"Kertzmanntown","Bairro":"labore","Logradouro":"Schmitt Shoals","Numero":91429,"Complemento":null,"cep":null,"Email":"jason.stiedemann@hotmail.com","NomeResponsavel":"Trent Feeney","Cargo":"Sales Manager","Telefone":"1-919-996-5167 x6450","Celular":"+8195174921779","EMatriz":"1","TemFilial":"0","Site":"einar.ward@effertz.info","RedeSocial":null,"created_at":"2019-07-16 13:02:51","updated_at":"2019-07-16 13:02:51"},{"id":3,"NomeFantasia":"Marks-Lowe","RazaoSocial":"Schuster LLC Ltd","Foto":"https:\/\/lorempixel.com\/640\/480\/?92108","CNPJ":"25734197","DI":"0001","DV":"95","Atendimento":"Segunda a Sexta, das 8:00 \u00e0s 17:00.","Tipo":"A","Especialidade":"Clinica Geral","Estado":"South Dakota","Cidade":"Parkermouth","Bairro":"in","Logradouro":"Schroeder Knolls","Numero":20615,"Complemento":null,"cep":null,"Email":"danyka33@hotmail.com","NomeResponsavel":"Lia Torphy PhD","Cargo":"Gas Appliance Repairer","Telefone":"1-815-704-9993 x4699","Celular":"+7310743189823","EMatriz":"1","TemFilial":"0","Site":"schuppe.jamal@wintheiser.biz","RedeSocial":null,"created_at":"2019-07-16 13:02:51","updated_at":"2019-07-16 13:02:51"},{"id":4,"NomeFantasia":"Kling Inc","RazaoSocial":"Ullrich LLC Inc","Foto":"https:\/\/lorempixel.com\/640\/480\/?10392","CNPJ":"89896171","DI":"0001","DV":"56","Atendimento":"Segunda a Sexta, das 8:00 \u00e0s 17:00.","Tipo":"A","Especialidade":"Clinica Geral","Estado":"Louisiana","Cidade":"Johnsonside","Bairro":"et","Logradouro":"Kuhn Ferry","Numero":89848,"Complemento":null,"cep":null,"Email":"dewayne.daniel@yahoo.com","NomeResponsavel":"Prof. Thad Braun DDS","Cargo":"Foundry Mold and Coremaker","Telefone":"+1-824-829-7311","Celular":"+6725664005732","EMatriz":"1","TemFilial":"0","Site":"chanelle15@reichel.com","RedeSocial":null,"created_at":"2019-07-16 13:02:51","updated_at":"2019-07-16 13:02:51"},{"id":5,"NomeFantasia":"Gibson, Marvin and Carroll","RazaoSocial":"Gottlieb, Connelly and Satterfield Inc","Foto":"https:\/\/lorempixel.com\/640\/480\/?41227","CNPJ":"58760273","DI":"0001","DV":"69","Atendimento":"Segunda a Sexta, das 8:00 \u00e0s 17:00.","Tipo":"A","Especialidade":"Clinica Geral","Estado":"Wisconsin","Cidade":"West Clarabelle","Bairro":"qui","Logradouro":"Carroll Common","Numero":44728,"Complemento":null,"cep":null,"Email":"constance48@gmail.com","NomeResponsavel":"Prof. Noel Luettgen IV","Cargo":"Armored Assault Vehicle Officer","Telefone":"1-751-963-7546 x57740","Celular":"+2084399832802","EMatriz":"1","TemFilial":"0","Site":"wisozk.sean@medhurst.com","RedeSocial":null,"created_at":"2019-07-16 13:02:51","updated_at":"2019-07-16 13:02:51"},{"id":6,"NomeFantasia":"Moen-Runolfsson","RazaoSocial":"Halvorson, Ullrich and Rath and Sons","Foto":"https:\/\/lorempixel.com\/640\/480\/?91589","CNPJ":"22247802","DI":"0001","DV":"10","Atendimento":"Segunda a Sexta, das 8:00 \u00e0s 17:00.","Tipo":"A","Especialidade":"Clinica Geral","Estado":"Arizona","Cidade":"Evertside","Bairro":"quia","Logradouro":"Durward Inlet","Numero":3123,"Complemento":null,"cep":null,"Email":"schumm.jules@yahoo.com","NomeResponsavel":"Prof. Lucio Langosh V","Cargo":"Physical Scientist","Telefone":"(703) 664-2700","Celular":"+1753395150866","EMatriz":"1","TemFilial":"0","Site":"hmuller@walker.com","RedeSocial":null,"created_at":"2019-07-16 13:02:51","updated_at":"2019-07-16 13:02:51"},{"id":7,"NomeFantasia":"Mosciski-Orn","RazaoSocial":"Koch-Lynch Ltd","Foto":"https:\/\/lorempixel.com\/640\/480\/?46590","CNPJ":"62147325","DI":"0001","DV":"10","Atendimento":"Segunda a Sexta, das 8:00 \u00e0s 17:00.","Tipo":"A","Especialidade":"Clinica Geral","Estado":"Virginia","Cidade":"Cliftonport","Bairro":"nemo","Logradouro":"Beier Summit","Numero":981,"Complemento":null,"cep":null,"Email":"vfay@hotmail.com","NomeResponsavel":"Alison Ryan","Cargo":"Lathe Operator","Telefone":"1-983-434-9550 x202","Celular":"+7332426346755","EMatriz":"1","TemFilial":"0","Site":"hhomenick@lebsack.com","RedeSocial":null,"created_at":"2019-07-16 13:02:51","updated_at":"2019-07-16 13:02:51"},{"id":8,"NomeFantasia":"Hodkiewicz-Witting","RazaoSocial":"Leannon, Gusikowski and Rippin Inc","Foto":"https:\/\/lorempixel.com\/640\/480\/?91236","CNPJ":"37641324","DI":"0001","DV":"42","Atendimento":"Segunda a Sexta, das 8:00 \u00e0s 17:00.","Tipo":"H","Especialidade":"Clinica Geral","Estado":"Arizona","Cidade":"Effertzburgh","Bairro":"aspernatur","Logradouro":"Hintz Orchard","Numero":27087,"Complemento":null,"cep":null,"Email":"arianna61@buckridge.biz","NomeResponsavel":"Tristian Price","Cargo":"Forest and Conservation Technician","Telefone":"(928) 519-7502","Celular":"+3064096144077","EMatriz":"1","TemFilial":"0","Site":"swaniawski.delmer@hintz.com","RedeSocial":null,"created_at":"2019-07-16 13:02:51","updated_at":"2019-07-16 13:02:51"},{"id":9,"NomeFantasia":"McLaughlin Ltd","RazaoSocial":"Lindgren-Waters Group","Foto":"https:\/\/lorempixel.com\/640\/480\/?86854","CNPJ":"02531219","DI":"0001","DV":"69","Atendimento":"Segunda a Sexta, das 8:00 \u00e0s 17:00.","Tipo":"A","Especialidade":"Clinica Geral","Estado":"Oregon","Cidade":"East Emilio","Bairro":"quia","Logradouro":"Wade Roads","Numero":40575,"Complemento":null,"cep":null,"Email":"luciano.weimann@gmail.com","NomeResponsavel":"Kaylee Oberbrunner Jr.","Cargo":"Chemical Equipment Tender","Telefone":"(903) 201-7931 x27372","Celular":"+6725127099894","EMatriz":"1","TemFilial":"0","Site":"yesenia76@walsh.com","RedeSocial":null,"created_at":"2019-07-16 13:02:52","updated_at":"2019-07-16 13:02:52"},{"id":10,"NomeFantasia":"Lindgren LLC","RazaoSocial":"Ortiz LLC LLC","Foto":"https:\/\/lorempixel.com\/640\/480\/?27335","CNPJ":"23901482","DI":"0001","DV":"31","Atendimento":"Segunda a Sexta, das 8:00 \u00e0s 17:00.","Tipo":"M","Especialidade":"Clinica Geral","Estado":"Oregon","Cidade":"West Adolf","Bairro":"at","Logradouro":"Predovic Landing","Numero":59454,"Complemento":null,"cep":null,"Email":"farrell.hank@bernier.com","NomeResponsavel":"Sophia Block","Cargo":"Postal Service Mail Sorter","Telefone":"+14716088960","Celular":"+6904223994806","EMatriz":"1","TemFilial":"0","Site":"queenie62@okon.net","RedeSocial":null,"created_at":"2019-07-16 13:02:52","updated_at":"2019-07-16 13:02:52"}],"first_page_url":"http:\/\/localhost:8000\/api\/establishments?page=1","from":1,"last_page":2,"last_page_url":"http:\/\/localhost:8000\/api\/establishments?page=2","next_page_url":"http:\/\/localhost:8000\/api\/establishments?page=2","path":"http:\/\/localhost:8000\/api\/establishments","per_page":10,"prev_page_url":null,"to":10,"total":12}