{"current_page":1,"data":[{"id":1,"nome":"Gwendolyn Bernier","foto":"https:\/\/lorempixel.com\/640\/480\/?14589","cpf":"28234108131","atendimento":"Segunda a Sexta, das 8:00 \u00e0s 17:00.","tipo":"A","cnpj":"82126008000163","especialidade":"Geral","estado":"New Hampshire","cidade":"Boehmport","bairro":"maxime","logradouro":"Jaunita Valleys","numero":254,"complemento":null,"cep":null,"email":"pfannerstill.marian@gulgowski.com","telefone":"(937) 352-7768 x3073","celular":"+1653510030048","site":"alycia69@stroman.com","facebook":null,"instagram":null,"linkedin":null,"twitter":null,"created_at":"2019-07-16 13:02:52","updated_at":"2019-07-16 13:02:52"},{"id":2,"nome":"Ms. Letitia McKenzie","foto":"https:\/\/lorempixel.com\/640\/480\/?51529","cpf":"54303629642","atendimento":"Segunda a Sexta, das 8:00 \u00e0s 17:00.","tipo":"M","cnpj":"88454643000156","especialidade":"Geral","estado":"Minnesota","cidade":"Powlowskibury","bairro":"eaque","logradouro":"Belle Court","numero":197,"complemento":null,"cep":null,"email":"lkovacek@vonrueden.biz","telefone":"1-651-631-9610 x1513","celular":"+8499559556709","site":"reilly.riley@bechtelar.com","facebook":null,"instagram":null,"linkedin":null,"twitter":null,"created_at":"2019-07-16 13:02:52","updated_at":"2019-07-16 13:02:52"},{"id":3,"nome":"Angie Yundt","foto":"https:\/\/lorempixel.com\/640\/480\/?63531","cpf":"96221702003","atendimento":"Segunda a Sexta, das 8:00 \u00e0s 17:00.","tipo":"A","cnpj":"38437515000126","especialidade":"Geral","estado":"New York","cidade":"Harveyhaven","bairro":"est","logradouro":"Mckenzie Forest","numero":25253,"complemento":null,"cep":null,"email":"keshawn.rosenbaum@gmail.com","telefone":"393.425.8145 x988","celular":"+7279935706811","site":"halie38@koepp.com","facebook":null,"instagram":null,"linkedin":null,"twitter":null,"created_at":"2019-07-16 13:02:52","updated_at":"2019-07-16 13:02:52"},{"id":4,"nome":"Dr. Bridgette Steuber PhD","foto":"https:\/\/lorempixel.com\/640\/480\/?23818","cpf":"31245987763","atendimento":"Segunda a Sexta, das 8:00 \u00e0s 17:00.","tipo":"H","cnpj":"42682562000102","especialidade":"Geral","estado":"Missouri","cidade":"East Rossie","bairro":"qui","logradouro":"Noel Via","numero":28101,"complemento":null,"cep":null,"email":"camila.treutel@connelly.info","telefone":"610-815-5513 x010","celular":"+5486945590210","site":"brooke46@mante.biz","facebook":null,"instagram":null,"linkedin":null,"twitter":null,"created_at":"2019-07-16 13:02:52","updated_at":"2019-07-16 13:02:52"},{"id":5,"nome":"Uriel Senger","foto":"https:\/\/lorempixel.com\/640\/480\/?69563","cpf":"26602978942","atendimento":"Segunda a Sexta, das 8:00 \u00e0s 17:00.","tipo":"M","cnpj":"23906753000166","especialidade":"Geral","estado":"Arkansas","cidade":"Dedricmouth","bairro":"cum","logradouro":"Toby Roads","numero":4165,"complemento":null,"cep":null,"email":"tyree.denesik@gusikowski.com","telefone":"+1 (540) 537-8307","celular":"+3633345722073","site":"kieran.kutch@cummerata.biz","facebook":null,"instagram":null,"linkedin":null,"twitter":null,"created_at":"2019-07-16 13:02:52","updated_at":"2019-07-16 13:02:52"},{"id":6,"nome":"Mortimer Rosenbaum","foto":"https:\/\/lorempixel.com\/640\/480\/?49836","cpf":"75004758700","atendimento":"Segunda a Sexta, das 8:00 \u00e0s 17:00.","tipo":"H","cnpj":"62861859000142","especialidade":"Geral","estado":"Washington","cidade":"New Dinoside","bairro":"tenetur","logradouro":"Klein Gardens","numero":43937,"complemento":null,"cep":null,"email":"aschneider@jenkins.com","telefone":"+18603532590","celular":"+1035186075745","site":"vtillman@swift.info","facebook":null,"instagram":null,"linkedin":null,"twitter":null,"created_at":"2019-07-16 13:02:52","updated_at":"2019-07-16 13:02:52"},{"id":7,"nome":"Beau Kshlerin","foto":"https:\/\/lorempixel.com\/640\/480\/?31993","cpf":"13209920303","atendimento":"Segunda a Sexta, das 8:00 \u00e0s 17:00.","tipo":"M","cnpj":"25498989000136","especialidade":"Geral","estado":"Delaware","cidade":"North Jazlynburgh","bairro":"cum","logradouro":"Deckow Spring","numero":96018,"complemento":null,"cep":null,"email":"daren.senger@yahoo.com","telefone":"(640) 970-9975 x7818","celular":"+6007717344636","site":"nsatterfield@jakubowski.org","facebook":null,"instagram":null,"linkedin":null,"twitter":null,"created_at":"2019-07-16 13:02:52","updated_at":"2019-07-16 13:02:52"},{"id":8,"nome":"Justina Jerde","foto":"https:\/\/lorempixel.com\/640\/480\/?25547","cpf":"12077957123","atendimento":"Segunda a Sexta, das 8:00 \u00e0s 17:00.","tipo":"M","cnpj":"73385679000158","especialidade":"Geral","estado":"Ohio","cidade":"West Clark","bairro":"ducimus","logradouro":"Myrtie Lane","numero":458,"complemento":null,"cep":null,"email":"kaya.jaskolski@nikolaus.org","telefone":"864.749.0158 x630","celular":"+8607327243589","site":"brutherford@orn.biz","facebook":null,"instagram":null,"linkedin":null,"twitter":null,"created_at":"2019-07-16 13:02:52","updated_at":"2019-07-16 13:02:52"},{"id":9,"nome":"Mrs. Abbie Moen Jr.","foto":"https:\/\/lorempixel.com\/640\/480\/?73842","cpf":"91057935646","atendimento":"Segunda a Sexta, das 8:00 \u00e0s 17:00.","tipo":"M","cnpj":"57623631000184","especialidade":"Geral","estado":"Georgia","cidade":"Jaylontown","bairro":"ex","logradouro":"Norval Inlet","numero":211,"complemento":null,"cep":null,"email":"psimonis@gmail.com","telefone":"331.842.6642","celular":"+2568430693366","site":"myriam.bechtelar@hane.info","facebook":null,"instagram":null,"linkedin":null,"twitter":null,"created_at":"2019-07-16 13:02:52","updated_at":"2019-07-16 13:02:52"},{"id":10,"nome":"Robbie O'Keefe MD","foto":"https:\/\/lorempixel.com\/640\/480\/?84124","cpf":"51588466426","atendimento":"Segunda a Sexta, das 8:00 \u00e0s 17:00.","tipo":"H","cnpj":"66591457000126","especialidade":"Geral","estado":"District of Columbia","cidade":"South Meghan","bairro":"impedit","logradouro":"Jovan Falls","numero":4711,"complemento":null,"cep":null,"email":"vpfannerstill@stoltenberg.com","telefone":"(789) 507-6425 x54844","celular":"+9208255310799","site":"sophia.jacobson@wintheiser.net","facebook":null,"instagram":null,"linkedin":null,"twitter":null,"created_at":"2019-07-16 13:02:52","updated_at":"2019-07-16 13:02:52"}],"first_page_url":"http:\/\/localhost:8000\/api\/professionals?page=1","from":1,"last_page":2,"last_page_url":"http:\/\/localhost:8000\/api\/professionals?page=2","next_page_url":"http:\/\/localhost:8000\/api\/professionals?page=2","path":"http:\/\/localhost:8000\/api\/professionals","per_page":10,"prev_page_url":null,"to":10,"total":11}